v 20110115 2
C 40000 40000 0 0 0 title-B.sym
C 41400 45700 1 0 0 gnd-1.sym
C 47000 47300 1 0 0 gnd-1.sym
C 56600 41800 1 0 0 gnd-1.sym
N 41900 48000 41500 48000 4
N 41500 48000 41500 46000 4
N 48900 48300 47100 48300 4
N 47100 47600 47100 48900 4
N 48900 48900 47100 48900 4
N 55000 46200 56700 46200 4
N 44900 48000 45300 48000 4
{
T 45400 48000 5 10 1 1 0 1 1
netname=SPIDATA
}
N 48700 45300 48900 45300 4
{
T 48600 45300 5 10 1 1 0 7 1
netname=SPIDATA
}
N 44900 47700 45300 47700 4
{
T 45400 47700 5 10 1 1 0 1 1
netname=SPICLK
}
N 55300 45000 55000 45000 4
{
T 55400 45000 5 10 1 1 0 1 1
netname=SPICLK
}
N 44900 48300 45300 48300 4
{
T 45400 48300 5 10 1 1 0 1 1
netname=\_SYNC\_
}
N 56700 46200 56700 42100 4
C 56400 42900 1 90 0 capacitor-1.sym
{
T 55700 43100 5 10 0 0 90 0 1
device=CAPACITOR
T 56000 43700 5 10 1 1 180 0 1
refdes=C5
T 55500 43100 5 10 0 0 90 0 1
symversion=0.1
T 55900 43200 5 10 1 1 180 0 1
value=0.1
T 56400 42900 5 10 0 0 90 0 1
footprint=0805
}
N 55000 45900 56200 45900 4
C 55400 45500 1 270 0 vcc-1.sym
N 55000 45300 55400 45300 4
C 50500 42100 1 0 0 gnd-1.sym
C 50400 43300 1 0 0 vcc-1.sym
C 51700 42400 1 90 0 capacitor-1.sym
{
T 51000 42600 5 10 0 0 90 0 1
device=CAPACITOR
T 51600 43000 5 10 1 1 0 0 1
refdes=C3
T 50800 42600 5 10 0 0 90 0 1
symversion=0.1
T 51600 42600 5 10 1 1 0 0 1
value=0.1
T 51700 42400 5 10 0 0 0 0 1
footprint=0805
}
C 51100 42400 1 90 0 capacitor-1.sym
{
T 50400 42600 5 10 0 0 90 0 1
device=CAPACITOR
T 51000 43000 5 10 1 1 0 0 1
refdes=C2
T 50200 42600 5 10 0 0 90 0 1
symversion=0.1
T 51000 42600 5 10 1 1 0 0 1
value=0.1
T 51100 42400 5 10 0 0 0 0 1
footprint=0805
}
C 50500 42400 1 90 0 capacitor-1.sym
{
T 49800 42600 5 10 0 0 90 0 1
device=CAPACITOR
T 50400 43000 5 10 1 1 0 0 1
refdes=C1
T 49600 42600 5 10 0 0 90 0 1
symversion=0.1
T 50400 42600 5 10 1 1 0 0 1
value=0.1
T 50500 42400 5 10 0 0 0 0 1
footprint=0805
}
N 50300 43300 51500 43300 4
N 50300 42400 51500 42400 4
C 42100 46000 1 90 0 capacitor-1.sym
{
T 41400 46200 5 10 0 0 90 0 1
device=CAPACITOR
T 41800 46600 5 10 1 1 180 2 1
refdes=C4
T 41200 46200 5 10 0 0 90 0 1
symversion=0.1
T 42000 46300 5 10 1 1 0 2 1
value=0.1
T 42100 46000 5 10 0 0 0 0 1
footprint=0805
}
N 41500 46000 41900 46000 4
C 41100 49100 1 0 0 vcc-1.sym
N 55000 49200 55300 49200 4
{
T 55400 49200 5 10 1 1 0 1 1
netname=TXD
}
C 41100 44600 1 90 0 resistor-2.sym
{
T 40750 45000 5 10 0 0 90 0 1
device=RESISTOR
T 41200 45100 5 10 1 1 180 8 1
refdes=R1
T 41100 44600 5 10 0 0 0 0 1
footprint=0805
}
N 41900 48600 41000 48600 4
N 41000 48600 41000 45500 4
{
T 40900 48600 5 10 1 1 0 6 1
netname=VOUTA
}
N 45300 48600 44900 48600 4
{
T 45400 48600 5 10 1 1 0 1 1
netname=VOUTB_SP1
}
N 41000 44600 41000 44400 4
{
T 41100 44900 5 10 1 1 0 0 1
netname=SP2
}
C 40900 43400 1 0 0 connector2-1.sym
{
T 41100 44400 5 10 0 0 0 0 1
device=CONNECTOR_2
T 40800 43700 5 10 1 1 180 2 1
refdes=SP
T 40000 45000 5 10 0 0 270 0 1
footprint=HEADER2_1
}
T 41500 44100 9 10 1 0 0 0 1
Speaker
C 40900 42100 1 0 0 connector2-1.sym
{
T 41100 43100 5 10 0 0 0 0 1
device=CONNECTOR_2
T 40800 42600 5 10 1 1 180 2 1
refdes=DC
T 40000 42700 5 10 0 0 270 0 1
footprint=HEADER2_1
}
C 42400 42600 1 0 0 vcc-1.sym
C 42500 42000 1 0 0 gnd-1.sym
N 42600 43900 42900 43900 4
{
T 42600 44000 5 10 1 1 0 0 1
netname=VOUTB_SP1
}
N 42600 43600 42900 43600 4
{
T 42700 43500 5 10 1 1 0 2 1
netname=SP2
}
C 45900 45800 1 0 0 vcc-1.sym
C 46000 44500 1 0 0 gnd-1.sym
N 55000 48600 55300 48600 4
{
T 55400 48600 5 10 1 1 0 1 1
netname=\_RESET\_
}
N 44300 44900 44000 44900 4
{
T 43900 44900 5 10 1 1 0 7 1
netname=\_RESET\_
}
N 45700 45700 46100 45700 4
N 46100 45700 46100 45800 4
N 45700 44900 46100 44900 4
N 46100 44900 46100 44800 4
N 45700 45300 46100 45300 4
{
T 46200 45300 5 10 1 1 0 1 1
netname=SPIDATA
}
N 44300 45300 44000 45300 4
{
T 43900 45300 5 10 1 1 0 7 1
netname=SPICLK
}
N 48700 45000 48900 45000 4
{
T 48600 45000 5 10 1 1 0 7 1
netname=MISO
}
N 44000 45700 44300 45700 4
{
T 43900 45700 5 10 1 1 0 7 1
netname=MISO
}
C 44300 44700 1 0 0 EMBEDDEDheader6-2-AVR.sym
[
P 44300 45700 44600 45700 1 0 0
{
T 44400 45750 5 8 1 1 0 0 1
pinnumber=1
T 44400 45750 9 8 0 1 0 0 1
pinlabel=1
T 44400 45750 5 8 0 0 0 0 1
pinseq=1
T 44400 45750 5 8 0 0 0 0 1
pintype=pas
}
P 45400 45700 45700 45700 1 0 1
{
T 45500 45750 5 8 1 1 0 0 1
pinnumber=2
T 45500 45750 9 8 0 1 0 0 1
pinlabel=2
T 45500 45750 5 8 0 0 0 0 1
pinseq=2
T 45500 45750 5 8 0 0 0 0 1
pintype=pas
}
P 44300 45300 44600 45300 1 0 0
{
T 44400 45350 5 8 1 1 0 0 1
pinnumber=3
T 44400 45350 9 8 0 1 0 0 1
pinlabel=3
T 44400 45350 5 8 0 0 0 0 1
pinseq=3
T 44400 45350 5 8 0 0 0 0 1
pintype=pas
}
P 45400 45300 45700 45300 1 0 1
{
T 45500 45350 5 8 1 1 0 0 1
pinnumber=4
T 45500 45350 9 8 0 1 0 0 1
pinlabel=4
T 45500 45350 5 8 0 0 0 0 1
pinseq=4
T 45500 45350 5 8 0 0 0 0 1
pintype=pas
}
P 44300 44900 44600 44900 1 0 0
{
T 44400 44950 5 8 1 1 0 0 1
pinnumber=5
T 44400 44950 9 8 0 1 0 0 1
pinlabel=5
T 44400 44950 5 8 0 0 0 0 1
pinseq=5
T 44400 44950 5 8 0 0 0 0 1
pintype=pas
}
P 45400 44900 45700 44900 1 0 1
{
T 45550 44950 5 8 1 1 0 0 1
pinnumber=6
T 45550 44950 9 8 0 1 0 0 1
pinlabel=6
T 45550 44950 5 8 0 0 0 0 1
pinseq=6
T 45550 44950 5 8 0 0 0 0 1
pintype=pas
}
L 44600 45100 45400 45100 3 0 0 0 -1 -1
L 44600 45500 45400 45500 3 0 0 0 -1 -1
L 45000 45900 45000 44700 3 0 0 0 -1 -1
B 44600 44700 800 1200 3 0 0 0 -1 -1 0 -1 -1 -1 -1 -1
T 44400 46900 5 10 0 0 0 0 1
device=HEADER6
T 44300 45900 5 10 0 1 0 0 1
numslots=0
T 44400 46600 5 10 0 0 0 0 1
description=Header 6 pins
T 44900 46000 8 10 0 1 0 0 1
refdes=J?
T 45200 45700 9 6 1 0 0 3 1
VCC
T 45200 44900 9 6 1 0 0 3 1
GND
T 45200 45300 9 6 1 0 0 3 1
MOSI
T 44800 45700 9 6 1 0 0 3 1
MISO
T 44800 45300 9 6 1 0 0 3 1
SCK
T 44800 44900 9 6 1 0 0 3 1
RST
T 44400 46300 5 10 0 0 0 0 1
numslots=1
T 44400 47200 5 10 0 0 0 0 1
author=Russell Steicke <russells@adelie.cx>
]
{
T 44400 46900 5 10 0 0 0 0 1
device=HEADER6
T 44800 46000 5 10 1 1 0 0 1
refdes=ICSP
T 44300 44700 5 10 0 0 0 0 1
footprint=HEADER6_2
}
C 47000 44000 1 180 0 connector6-1.sym
{
T 45200 42200 5 10 0 0 180 0 1
device=CONNECTOR_6
T 47100 43700 5 10 1 1 180 8 1
refdes=SERIAL
T 45900 41900 5 10 1 0 180 6 1
footprint=HEADER_6x1.fp
}
C 45200 42000 1 0 0 gnd-1.sym
N 45300 43500 45000 43500 4
{
T 44900 43500 5 10 1 1 0 7 1
netname=TXD
}
T 40900 42900 9 10 1 0 0 0 1
Power (3V)
C 48900 44300 1 0 0 ATmega328P-AU.sym
{
T 54600 50000 5 10 1 1 0 6 1
refdes=MCU
T 49300 44500 5 10 1 0 0 2 1
footprint=TQFP32_7
T 49300 51400 5 10 0 0 0 0 1
device=ATmega328P-AU
}
C 47500 49500 1 0 0 vcc-1.sym
N 47700 49500 47700 48000 4
N 47700 48000 48900 48000 4
N 48900 48600 47700 48600 4
N 48700 45900 48900 45900 4
{
T 48600 45900 5 10 1 1 0 7 1
netname=\_SYNC\_
}
N 41300 48300 41900 48300 4
N 41300 49100 41300 48300 4
C 41900 47400 1 0 0 AD7303BRZ.sym
{
T 44500 49100 5 10 1 1 0 6 1
refdes=DAC
T 43300 47100 5 10 1 0 0 0 1
footprint=SOIC-127P-600L1-8N.fp
}
C 45200 49100 1 90 0 resistor-2.sym
{
T 44850 49500 5 10 0 0 90 0 1
device=RESISTOR
T 45300 49600 5 10 1 1 180 8 1
refdes=R2
T 45200 49100 5 10 0 0 0 0 1
footprint=0805
}
C 44900 50000 1 0 0 vcc-1.sym
N 45100 49100 45100 48300 4
T 52300 42600 9 10 1 0 0 0 4
Caps are for
- MCU VCC
- MCU AVCC
- DAC VCC
N 41900 46900 41900 47700 4
{
T 42000 47100 5 10 1 1 0 0 1
netname=DAC_REF
}
N 56200 45900 56200 43800 4
{
T 56100 44000 5 10 1 1 0 6 1
netname=MCU_AREF
}
N 56200 42900 56200 42500 4
N 56200 42500 56700 42500 4
N 55000 49500 55300 49500 4
{
T 55400 49500 5 10 1 1 0 1 1
netname=LEDOUT
}
C 47600 40900 1 180 0 resistor-2.sym
{
T 47200 40550 5 10 0 0 180 0 1
device=RESISTOR
T 47000 41000 5 10 1 1 0 0 1
refdes=R3
T 47600 40900 5 10 0 0 90 0 1
footprint=0805
}
N 47600 40800 48000 40800 4
{
T 48100 40800 5 10 1 1 0 1 1
netname=LEDOUT
}
C 46700 40900 1 180 0 led-2.sym
{
T 46200 41000 5 10 1 1 180 8 1
refdes=D1
T 46600 40300 5 10 0 0 180 0 1
device=LED
T 46700 40900 5 10 0 0 0 0 1
footprint=0805
}
C 45200 40400 1 0 0 gnd-1.sym
N 45800 40800 45300 40800 4
N 45300 40800 45300 40700 4
C 49000 43600 1 0 0 vcc-1.sym
C 49100 43600 1 270 0 resistor-2.sym
{
T 49450 43200 5 10 0 0 270 0 1
device=RESISTOR
T 49000 43200 5 10 1 1 180 0 1
refdes=R4
T 49100 43600 5 10 0 0 180 0 1
footprint=0805
}
N 49200 42700 49200 42200 4
{
T 49200 42100 5 10 1 1 0 5 1
netname=\_RESET\_
}
C 40900 40800 1 0 0 connector2-1.sym
{
T 41100 41800 5 10 0 0 0 0 1
device=CONNECTOR_2
T 40800 41300 5 10 1 1 180 2 1
refdes=LID
T 40000 41400 5 10 0 0 270 0 1
footprint=HEADER2_1
}
N 48700 47100 48900 47100 4
{
T 48600 47100 5 10 1 1 0 7 1
netname=LIDSWITCH
}
C 42500 40700 1 0 0 gnd-1.sym
N 42600 41300 44300 41300 4
{
T 43900 41200 5 10 1 1 0 8 1
netname=LIDSWITCH
}
C 43800 42200 1 270 0 resistor-2.sym
{
T 44150 41800 5 10 0 0 270 0 1
device=RESISTOR
T 43700 41900 5 10 1 1 180 0 1
refdes=R5
T 43800 42200 5 10 0 0 180 0 1
footprint=0805
}
C 43700 42200 1 0 0 vcc-1.sym
N 55000 47100 55300 47100 4
{
T 55400 47100 5 10 1 1 0 1 1
netname=PINA
}
N 55000 47400 55300 47400 4
{
T 55400 47400 5 10 1 1 0 1 1
netname=PINB
}
C 53900 43200 1 270 0 resistor-2.sym
{
T 54250 42800 5 10 0 0 270 0 1
device=RESISTOR
T 53800 42800 5 10 1 1 180 0 1
refdes=A
T 53900 43200 5 10 0 0 180 0 1
footprint=0805
}
N 54000 42300 54700 42300 4
C 54600 43200 1 270 0 resistor-2.sym
{
T 54950 42800 5 10 0 0 270 0 1
device=RESISTOR
T 54500 42800 5 10 1 1 180 0 1
refdes=B
T 54600 43200 5 10 0 0 180 0 1
footprint=0805
}
N 54000 43200 54000 43500 4
{
T 54000 43600 5 10 1 1 0 3 1
netname=PINA
}
N 54700 43200 54700 43500 4
{
T 54700 43600 5 10 1 1 0 3 1
netname=PINB
}
C 54300 42000 1 0 0 gnd-1.sym
