v 20110115 2
C 42500 46500 1 0 0 gnd-1.sym
C 49500 46000 1 0 0 gnd-1.sym
C 58300 41400 1 0 0 gnd-1.sym
N 43600 48200 42600 48200 4
N 42600 48200 42600 46800 4
N 56100 43500 58400 43500 4
N 46600 48200 47000 48200 4
{
T 47100 48200 5 10 1 1 0 1 1
netname=SPIDATA
}
N 50200 48000 50500 48000 4
{
T 50100 48000 5 10 1 1 0 7 1
netname=SPIDATA
}
N 46600 47900 47000 47900 4
{
T 47100 47900 5 10 1 1 0 1 1
netname=SPICLK
}
N 50500 47400 50200 47400 4
{
T 50100 47400 5 10 1 1 0 7 1
netname=SPICLK
}
N 46600 48500 47000 48500 4
{
T 47100 48500 5 10 1 1 0 1 1
netname=DACSYNC
}
N 58400 42200 58400 41700 4
C 58600 42200 1 90 0 capacitor-1.sym
{
T 57900 42400 5 10 0 0 90 0 1
device=CAPACITOR
T 58500 42800 5 10 1 1 180 8 1
refdes=C11
T 57700 42400 5 10 0 0 90 0 1
symversion=0.1
T 58500 42500 5 10 1 1 180 6 1
value=0.1
T 58600 42200 5 10 0 0 90 0 1
footprint=0805
}
N 56100 43200 57900 43200 4
C 56500 43100 1 270 0 vcc-1.sym
N 56100 42900 56500 42900 4
C 41200 51200 1 90 0 capacitor-1.sym
{
T 40500 51400 5 10 0 0 90 0 1
device=CAPACITOR
T 41100 51800 5 10 1 1 0 0 1
refdes=C3
T 40300 51400 5 10 0 0 90 0 1
symversion=0.1
T 41100 51400 5 10 1 1 0 0 1
value=0.1
T 41200 51200 5 10 0 0 0 0 1
footprint=0805
}
C 40600 51200 1 90 0 capacitor-1.sym
{
T 39900 51400 5 10 0 0 90 0 1
device=CAPACITOR
T 40500 51800 5 10 1 1 0 0 1
refdes=C2
T 39700 51400 5 10 0 0 90 0 1
symversion=0.1
T 40500 51400 5 10 1 1 0 0 1
value=0.1
T 40600 51200 5 10 0 0 0 0 1
footprint=0805
}
C 40000 51200 1 90 0 capacitor-1.sym
{
T 39300 51400 5 10 0 0 90 0 1
device=CAPACITOR
T 39900 51800 5 10 1 1 0 0 1
refdes=C1
T 39100 51400 5 10 0 0 90 0 1
symversion=0.1
T 39900 51400 5 10 1 1 0 0 1
value=0.1
T 40000 51200 5 10 0 0 0 0 1
footprint=0805
}
N 39800 52100 44100 52100 4
N 39800 51200 44100 51200 4
C 43200 46800 1 90 0 capacitor-1.sym
{
T 42500 47000 5 10 0 0 90 0 1
device=CAPACITOR
T 43100 47400 5 10 1 1 180 8 1
refdes=C10
T 42300 47000 5 10 0 0 90 0 1
symversion=0.1
T 43100 47100 5 10 1 1 0 2 1
value=0.1
T 43200 46800 5 10 0 0 0 0 1
footprint=0805
}
N 42600 46800 43000 46800 4
C 43000 48300 1 90 0 vcc-1.sym
N 50200 45300 50500 45300 4
{
T 50100 45300 5 10 1 1 0 7 1
netname=TXD
}
C 44100 52100 1 0 1 vcc-1.sym
C 44000 50900 1 0 1 gnd-1.sym
C 49200 52000 1 0 0 vcc-1.sym
C 49300 50700 1 0 0 gnd-1.sym
N 50200 47100 50500 47100 4
{
T 50100 47100 5 10 1 1 0 7 1
netname=RESET
}
N 47600 51100 47300 51100 4
{
T 47200 51100 5 10 1 1 0 7 1
netname=RESET
}
N 49000 51900 49400 51900 4
N 49400 51900 49400 52000 4
N 49000 51100 49400 51100 4
N 49400 51100 49400 51000 4
N 49000 51500 49400 51500 4
{
T 49500 51500 5 10 1 1 0 1 1
netname=SPIDATA
}
N 47600 51500 47300 51500 4
{
T 47200 51500 5 10 1 1 0 7 1
netname=SPICLK
}
N 50200 47700 50500 47700 4
{
T 50100 47700 5 10 1 1 0 7 1
netname=MISO
}
N 47300 51900 47600 51900 4
{
T 47200 51900 5 10 1 1 0 7 1
netname=MISO
}
C 47600 50900 1 0 0 EMBEDDEDheader6-2-AVR.sym
[
T 47700 53400 5 10 0 0 0 0 1
author=Russell Steicke <russells@adelie.cx>
T 47700 52500 5 10 0 0 0 0 1
numslots=1
T 48100 51100 9 6 1 0 0 3 1
RST
T 48100 51500 9 6 1 0 0 3 1
SCK
T 48100 51900 9 6 1 0 0 3 1
MISO
T 48500 51500 9 6 1 0 0 3 1
MOSI
T 48500 51100 9 6 1 0 0 3 1
GND
T 48500 51900 9 6 1 0 0 3 1
VCC
T 48200 52200 8 10 0 1 0 0 1
refdes=J?
T 47700 52800 5 10 0 0 0 0 1
description=Header 6 pins
T 47600 52100 5 10 0 1 0 0 1
numslots=0
T 47700 53100 5 10 0 0 0 0 1
device=HEADER6
B 47900 50900 800 1200 3 0 0 0 -1 -1 0 -1 -1 -1 -1 -1
L 48300 52100 48300 50900 3 0 0 0 -1 -1
L 47900 51700 48700 51700 3 0 0 0 -1 -1
L 47900 51300 48700 51300 3 0 0 0 -1 -1
P 48700 51100 49000 51100 1 0 1
{
T 48850 51150 5 8 1 1 0 0 1
pinnumber=6
T 48850 51150 9 8 0 1 0 0 1
pinlabel=6
T 48850 51150 5 8 0 0 0 0 1
pinseq=6
T 48850 51150 5 8 0 0 0 0 1
pintype=pas
}
P 47600 51100 47900 51100 1 0 0
{
T 47700 51150 5 8 1 1 0 0 1
pinnumber=5
T 47700 51150 9 8 0 1 0 0 1
pinlabel=5
T 47700 51150 5 8 0 0 0 0 1
pinseq=5
T 47700 51150 5 8 0 0 0 0 1
pintype=pas
}
P 48700 51500 49000 51500 1 0 1
{
T 48800 51550 5 8 1 1 0 0 1
pinnumber=4
T 48800 51550 9 8 0 1 0 0 1
pinlabel=4
T 48800 51550 5 8 0 0 0 0 1
pinseq=4
T 48800 51550 5 8 0 0 0 0 1
pintype=pas
}
P 47600 51500 47900 51500 1 0 0
{
T 47700 51550 5 8 1 1 0 0 1
pinnumber=3
T 47700 51550 9 8 0 1 0 0 1
pinlabel=3
T 47700 51550 5 8 0 0 0 0 1
pinseq=3
T 47700 51550 5 8 0 0 0 0 1
pintype=pas
}
P 48700 51900 49000 51900 1 0 1
{
T 48800 51950 5 8 1 1 0 0 1
pinnumber=2
T 48800 51950 9 8 0 1 0 0 1
pinlabel=2
T 48800 51950 5 8 0 0 0 0 1
pinseq=2
T 48800 51950 5 8 0 0 0 0 1
pintype=pas
}
P 47600 51900 47900 51900 1 0 0
{
T 47700 51950 5 8 1 1 0 0 1
pinnumber=1
T 47700 51950 9 8 0 1 0 0 1
pinlabel=1
T 47700 51950 5 8 0 0 0 0 1
pinseq=1
T 47700 51950 5 8 0 0 0 0 1
pintype=pas
}
]
{
T 47700 53100 5 10 0 0 0 0 1
device=HEADER6
T 48100 52200 5 10 1 1 0 0 1
refdes=ICSP
T 47600 50900 5 10 0 0 0 0 1
footprint=HEADER6_2
}
C 54400 52200 1 180 0 connector6-1.sym
{
T 52600 50400 5 10 0 0 180 0 1
device=CONNECTOR_6
T 54500 51900 5 10 1 1 180 8 1
refdes=SERIAL
T 53300 50100 5 10 1 0 180 6 1
footprint=HEADER_6x1.fp
}
C 52600 50200 1 0 0 gnd-1.sym
N 52700 51700 52400 51700 4
{
T 52300 51700 5 10 1 1 0 7 1
netname=TXD
}
T 44700 50900 9 10 1 0 0 0 1
Power (3V)
C 49300 46600 1 90 0 vcc-1.sym
N 43000 48500 43600 48500 4
T 37100 51100 9 10 1 0 0 0 6
Caps are for
- MCU VCC x3 (5, 17, 38)
- MCU AVCC (27)
- DAC VDD (2)
- AMP VDD (1)
- AMP PVDD (10)
N 43000 47700 43000 47900 4
N 58400 43500 58400 43100 4
N 57900 42100 58400 42100 4
N 56100 41700 56400 41700 4
{
T 56500 41700 5 10 1 1 0 1 1
netname=LEDOUT
}
C 44900 39200 1 180 0 resistor-2.sym
{
T 44500 38850 5 10 0 0 180 0 1
device=RESISTOR
T 44300 39300 5 10 1 1 0 0 1
refdes=RLED
T 44900 39200 5 10 0 0 90 0 1
footprint=0805
T 44500 38900 5 10 1 1 0 5 1
value=330
}
N 44900 39100 45300 39100 4
{
T 45400 39100 5 10 1 1 0 1 1
netname=LEDOUT
}
C 44000 39200 1 180 0 led-2.sym
{
T 43400 39300 5 10 1 1 180 8 1
refdes=LED
T 43900 38600 5 10 0 0 180 0 1
device=LED
T 44000 39200 5 10 0 0 0 0 1
footprint=0805
}
C 42500 38700 1 0 0 gnd-1.sym
N 43100 39100 42600 39100 4
N 42600 39100 42600 39000 4
C 48400 39900 1 0 0 vcc-1.sym
C 48500 39900 1 270 0 resistor-2.sym
{
T 48850 39500 5 10 0 0 270 0 1
device=RESISTOR
T 48400 39500 5 10 1 1 180 0 1
refdes=RRESET
T 48500 39900 5 10 0 0 180 0 1
footprint=0805
T 48800 39500 5 10 1 1 0 2 1
value=100k
}
N 48600 39000 48600 38500 4
{
T 48600 38400 5 10 1 1 0 5 1
netname=RESET
}
N 50200 44700 50500 44700 4
{
T 50100 44700 5 10 1 1 0 7 1
netname=LIDSWITCH
}
C 39200 38500 1 0 0 gnd-1.sym
N 39100 39100 40800 39100 4
{
T 40400 39000 5 10 1 1 0 8 1
netname=LIDSWITCH
}
C 40300 40000 1 270 0 resistor-2.sym
{
T 40650 39600 5 10 0 0 270 0 1
device=RESISTOR
T 40200 39700 5 10 1 1 180 0 1
refdes=RLID
T 40300 40000 5 10 0 0 180 0 1
footprint=0805
}
N 56100 45000 56400 45000 4
{
T 56500 45000 5 10 1 1 0 1 1
netname=PINA
}
N 56100 45300 56400 45300 4
{
T 56500 45300 5 10 1 1 0 1 1
netname=PINB
}
C 57700 52200 1 270 0 resistor-2.sym
{
T 58050 51800 5 10 0 0 270 0 1
device=RESISTOR
T 57600 51800 5 10 1 1 180 0 1
refdes=A
T 57700 52200 5 10 0 0 180 0 1
footprint=0805
}
N 57800 51300 58500 51300 4
C 58400 52200 1 270 0 resistor-2.sym
{
T 58750 51800 5 10 0 0 270 0 1
device=RESISTOR
T 58300 51800 5 10 1 1 180 0 1
refdes=B
T 58400 52200 5 10 0 0 180 0 1
footprint=0805
}
N 57800 52200 57800 52500 4
{
T 57800 52600 5 10 1 1 0 3 1
netname=PINA
}
N 58500 52200 58500 52500 4
{
T 58500 52600 5 10 1 1 0 3 1
netname=PINB
}
C 58100 51000 1 0 0 gnd-1.sym
C 36100 36700 0 0 0 title-A2.sym
{
T 58100 37700 5 10 1 1 0 0 1
author=Russell Steicke
T 49100 50900 5 10 1 1 0 0 1
revision=2
T 52600 37500 5 10 1 1 0 0 1
title=CS
}
C 50500 41100 1 0 0 EMBEDDEDATmega1284P-AU.sym
[
T 50900 41300 8 10 0 0 0 2 1
footprint=TQFP44_10
T 50900 48900 8 10 0 0 0 0 1
numslots=1
T 50900 49200 8 10 0 0 0 0 1
device=ATmega1284P
T 50900 49500 8 10 0 0 0 0 1
description=AVR ATmega1284P with TQFP 44 footprint
T 50900 49800 8 10 0 0 0 0 1
author=Russell Steicke <russells@adelie.cx>
T 50900 48500 8 10 0 1 0 0 1
refdes=U?
T 52500 48500 9 10 1 0 0 0 1
ATmega1284P
P 56100 48000 55800 48000 1 0 0
{
T 56100 48000 5 10 0 0 0 0 1
pintype=io
T 55745 47995 5 10 1 1 0 6 1
pinlabel=(\_SS\_/OC0B/PCINT12) PB4
T 55895 48045 5 10 1 1 0 0 1
pinnumber=44
T 56100 48000 5 10 0 0 0 0 1
pinseq=44
}
P 56100 47700 55800 47700 1 0 0
{
T 56100 47700 5 10 0 0 0 0 1
pintype=io
T 55745 47695 5 10 1 1 0 6 1
pinlabel=(AIN1/OC0A/PCINT11) PB3
T 55895 47745 5 10 1 1 0 0 1
pinnumber=43
T 56100 47700 5 10 0 0 0 0 1
pinseq=43
}
P 56100 47400 55800 47400 1 0 0
{
T 56100 47400 5 10 0 0 0 0 1
pintype=io
T 55745 47395 5 10 1 1 0 6 1
pinlabel=(AIN0/INT2/PCINT10) PB2
T 55895 47445 5 10 1 1 0 0 1
pinnumber=42
T 56100 47400 5 10 0 0 0 0 1
pinseq=42
}
P 56100 47100 55800 47100 1 0 0
{
T 56100 47100 5 10 0 0 0 0 1
pintype=io
T 55745 47095 5 10 1 1 0 6 1
pinlabel=(T1/CLKO/PCINT9) PB1
T 55895 47145 5 10 1 1 0 0 1
pinnumber=41
T 56100 47100 5 10 0 0 0 0 1
pinseq=41
}
P 56100 46800 55800 46800 1 0 0
{
T 56100 46800 5 10 0 0 0 0 1
pintype=io
T 55745 46795 5 10 1 1 0 6 1
pinlabel=(XCK0/T0/PCINT8) PB0
T 55895 46845 5 10 1 1 0 0 1
pinnumber=40
T 56100 46800 5 10 0 0 0 0 1
pinseq=40
}
P 56100 46500 55800 46500 1 0 0
{
T 56100 46500 5 10 0 0 0 0 1
pintype=io
T 55745 46495 5 10 1 1 0 6 1
pinlabel=GND
T 55895 46545 5 10 1 1 0 0 1
pinnumber=39
T 56100 46500 5 10 0 0 0 0 1
pinseq=39
}
P 56100 46200 55800 46200 1 0 0
{
T 56100 46200 5 10 0 0 0 0 1
pintype=io
T 55745 46195 5 10 1 1 0 6 1
pinlabel=VCC
T 55895 46245 5 10 1 1 0 0 1
pinnumber=38
T 56100 46200 5 10 0 0 0 0 1
pinseq=38
}
P 56100 45900 55800 45900 1 0 0
{
T 56100 45900 5 10 0 0 0 0 1
pintype=io
T 55745 45895 5 10 1 1 0 6 1
pinlabel=(ADC0/PCINT0) PA0
T 55895 45945 5 10 1 1 0 0 1
pinnumber=37
T 56100 45900 5 10 0 0 0 0 1
pinseq=37
}
P 56100 45600 55800 45600 1 0 0
{
T 56100 45600 5 10 0 0 0 0 1
pintype=io
T 55745 45595 5 10 1 1 0 6 1
pinlabel=(ADC1/PCINT1) PA1
T 55895 45645 5 10 1 1 0 0 1
pinnumber=36
T 56100 45600 5 10 0 0 0 0 1
pinseq=36
}
P 56100 45300 55800 45300 1 0 0
{
T 56100 45300 5 10 0 0 0 0 1
pintype=io
T 55745 45295 5 10 1 1 0 6 1
pinlabel=(ADC2/PCINT2) PA2
T 55895 45345 5 10 1 1 0 0 1
pinnumber=35
T 56100 45300 5 10 0 0 0 0 1
pinseq=35
}
P 56100 45000 55800 45000 1 0 0
{
T 56100 45000 5 10 0 0 0 0 1
pintype=io
T 55745 44995 5 10 1 1 0 6 1
pinlabel=(ADC3/PCINT3) PA3
T 55895 45045 5 10 1 1 0 0 1
pinnumber=34
T 56100 45000 5 10 0 0 0 0 1
pinseq=34
}
P 56100 44700 55800 44700 1 0 0
{
T 56100 44700 5 10 0 0 0 0 1
pintype=io
T 55745 44695 5 10 1 1 0 6 1
pinlabel=(ADC4/PCINT4) PA4
T 55895 44745 5 10 1 1 0 0 1
pinnumber=33
T 56100 44700 5 10 0 0 0 0 1
pinseq=33
}
P 56100 44400 55800 44400 1 0 0
{
T 56100 44400 5 10 0 0 0 0 1
pintype=io
T 55745 44395 5 10 1 1 0 6 1
pinlabel=(ADC5/PCINT5) PA5
T 55895 44445 5 10 1 1 0 0 1
pinnumber=32
T 56100 44400 5 10 0 0 0 0 1
pinseq=32
}
P 56100 44100 55800 44100 1 0 0
{
T 56100 44100 5 10 0 0 0 0 1
pintype=io
T 55745 44095 5 10 1 1 0 6 1
pinlabel=(ADC6/PCINT6) PA6
T 55895 44145 5 10 1 1 0 0 1
pinnumber=31
T 56100 44100 5 10 0 0 0 0 1
pinseq=31
}
P 56100 43800 55800 43800 1 0 0
{
T 56100 43800 5 10 0 0 0 0 1
pintype=io
T 55745 43795 5 10 1 1 0 6 1
pinlabel=(ADC7/PCINT7) PA7
T 55895 43845 5 10 1 1 0 0 1
pinnumber=30
T 56100 43800 5 10 0 0 0 0 1
pinseq=30
}
P 56100 43500 55800 43500 1 0 0
{
T 56100 43500 5 10 0 0 0 0 1
pintype=io
T 55745 43495 5 10 1 1 0 6 1
pinlabel=AREF
T 55895 43545 5 10 1 1 0 0 1
pinnumber=29
T 56100 43500 5 10 0 0 0 0 1
pinseq=29
}
P 56100 43200 55800 43200 1 0 0
{
T 56100 43200 5 10 0 0 0 0 1
pintype=pwr
T 55745 43195 5 10 1 1 0 6 1
pinlabel=GND
T 55895 43245 5 10 1 1 0 0 1
pinnumber=28
T 56100 43200 5 10 0 0 0 0 1
pinseq=28
}
P 56100 42900 55800 42900 1 0 0
{
T 56100 42900 5 10 0 0 0 0 1
pintype=pwr
T 55745 42895 5 10 1 1 0 6 1
pinlabel=AVCC
T 55895 42945 5 10 1 1 0 0 1
pinnumber=27
T 56100 42900 5 10 0 0 0 0 1
pinseq=27
}
P 56100 42600 55800 42600 1 0 0
{
T 56100 42600 5 10 0 0 0 0 1
pintype=io
T 55745 42595 5 10 1 1 0 6 1
pinlabel=(TOSC2/PCINT23) PC7
T 55895 42645 5 10 1 1 0 0 1
pinnumber=26
T 56100 42600 5 10 0 0 0 0 1
pinseq=26
}
P 56100 42300 55800 42300 1 0 0
{
T 56100 42300 5 10 0 0 0 0 1
pintype=io
T 55745 42295 5 10 1 1 0 6 1
pinlabel=(TOSC1/PCINT22) PC6
T 55895 42345 5 10 1 1 0 0 1
pinnumber=25
T 56100 42300 5 10 0 0 0 0 1
pinseq=25
}
P 56100 42000 55800 42000 1 0 0
{
T 56100 42000 5 10 0 0 0 0 1
pintype=io
T 55745 41995 5 10 1 1 0 6 1
pinlabel=(TDI/PCINT21) PC5
T 55895 42045 5 10 1 1 0 0 1
pinnumber=24
T 56100 42000 5 10 0 0 0 0 1
pinseq=24
}
P 56100 41700 55800 41700 1 0 0
{
T 56100 41700 5 10 0 0 0 0 1
pintype=io
T 55745 41695 5 10 1 1 0 6 1
pinlabel=(TDO/PCINT20) PC4
T 55895 41745 5 10 1 1 0 0 1
pinnumber=23
T 56100 41700 5 10 0 0 0 0 1
pinseq=23
}
P 50500 41700 50800 41700 1 0 0
{
T 50500 41700 5 10 0 0 0 0 1
pintype=io
T 50855 41695 5 10 1 1 0 0 1
pinlabel=PC3(PCINT19/TMS)
T 50705 41745 5 10 1 1 0 6 1
pinnumber=22
T 50500 41700 5 10 0 0 0 0 1
pinseq=22
}
P 50500 42000 50800 42000 1 0 0
{
T 50500 42000 5 10 0 0 0 0 1
pintype=io
T 50855 41995 5 10 1 1 0 0 1
pinlabel=PC2 (PCINT18/TCK)
T 50705 42045 5 10 1 1 0 6 1
pinnumber=21
T 50500 42000 5 10 0 0 0 0 1
pinseq=21
}
P 50500 42300 50800 42300 1 0 0
{
T 50500 42300 5 10 0 0 0 0 1
pintype=io
T 50855 42295 5 10 1 1 0 0 1
pinlabel=PC1 (PCINT17/SDA)
T 50705 42345 5 10 1 1 0 6 1
pinnumber=20
T 50500 42300 5 10 0 0 0 0 1
pinseq=20
}
P 50500 42600 50800 42600 1 0 0
{
T 50500 42600 5 10 0 0 0 0 1
pintype=io
T 50855 42595 5 10 1 1 0 0 1
pinlabel=PC0 (PCINT16/SCL)
T 50705 42645 5 10 1 1 0 6 1
pinnumber=19
T 50500 42600 5 10 0 0 0 0 1
pinseq=19
}
P 50500 42900 50800 42900 1 0 0
{
T 50500 42900 5 10 0 0 0 0 1
pintype=pwr
T 50855 42895 5 10 1 1 0 0 1
pinlabel=GND
T 50705 42945 5 10 1 1 0 6 1
pinnumber=18
T 50500 42900 5 10 0 0 0 0 1
pinseq=18
}
P 50500 43200 50800 43200 1 0 0
{
T 50500 43200 5 10 0 0 0 0 1
pintype=pwr
T 50855 43195 5 10 1 1 0 0 1
pinlabel=VCC
T 50705 43245 5 10 1 1 0 6 1
pinnumber=17
T 50500 43200 5 10 0 0 0 0 1
pinseq=17
}
P 50500 43500 50800 43500 1 0 0
{
T 50500 43500 5 10 0 0 0 0 1
pintype=io
T 50855 43495 5 10 1 1 0 0 1
pinlabel=PD7 (PCINT31/OC2A)
T 50705 43545 5 10 1 1 0 6 1
pinnumber=16
T 50500 43500 5 10 0 0 0 0 1
pinseq=16
}
P 50500 43800 50800 43800 1 0 0
{
T 50500 43800 5 10 0 0 0 0 1
pintype=io
T 50855 43795 5 10 1 1 0 0 1
pinlabel=PD6 (PCINT30/OC2B/ICP)
T 50705 43845 5 10 1 1 0 6 1
pinnumber=15
T 50500 43800 5 10 0 0 0 0 1
pinseq=15
}
P 50500 44100 50800 44100 1 0 0
{
T 50500 44100 5 10 0 0 0 0 1
pintype=io
T 50855 44095 5 10 1 1 0 0 1
pinlabel=PD5 (PCINT29/OC1A)
T 50705 44145 5 10 1 1 0 6 1
pinnumber=14
T 50500 44100 5 10 0 0 0 0 1
pinseq=14
}
P 50500 44400 50800 44400 1 0 0
{
T 50500 44400 5 10 0 0 0 0 1
pintype=io
T 50855 44395 5 10 1 1 0 0 1
pinlabel=PD4 (PCINT28/XCK1/OC1B)
T 50705 44445 5 10 1 1 0 6 1
pinnumber=13
T 50500 44400 5 10 0 0 0 0 1
pinseq=13
}
P 50500 44700 50800 44700 1 0 0
{
T 50500 44700 5 10 0 0 0 0 1
pintype=io
T 50855 44695 5 10 1 1 0 0 1
pinlabel=PD3 (PCINT27/TXD1/INT1)
T 50705 44745 5 10 1 1 0 6 1
pinnumber=12
T 50500 44700 5 10 0 0 0 0 1
pinseq=12
}
P 50500 45000 50800 45000 1 0 0
{
T 50500 45000 5 10 0 0 0 0 1
pintype=io
T 50855 44995 5 10 1 1 0 0 1
pinlabel=PD2 (PCINT26/RXD1/INT0)
T 50705 45045 5 10 1 1 0 6 1
pinnumber=11
T 50500 45000 5 10 0 0 0 0 1
pinseq=11
}
P 50500 45300 50800 45300 1 0 0
{
T 50500 45300 5 10 0 0 0 0 1
pintype=io
T 50855 45295 5 10 1 1 0 0 1
pinlabel=PD1 (PCINT25/TXD0)
T 50705 45345 5 10 1 1 0 6 1
pinnumber=10
T 50500 45300 5 10 0 0 0 0 1
pinseq=10
}
P 50500 45600 50800 45600 1 0 0
{
T 50500 45600 5 10 0 0 0 0 1
pintype=io
T 50855 45595 5 10 1 1 0 0 1
pinlabel=PD0 (PCINT24/RXD0/T3*)
T 50705 45645 5 10 1 1 0 6 1
pinnumber=9
T 50500 45600 5 10 0 0 0 0 1
pinseq=9
}
P 50500 45900 50800 45900 1 0 0
{
T 50500 45900 5 10 0 0 0 0 1
pintype=in
T 50855 45895 5 10 1 1 0 0 1
pinlabel=XTAL1
T 50705 45945 5 10 1 1 0 6 1
pinnumber=8
T 50500 45900 5 10 0 0 0 0 1
pinseq=8
}
P 50500 46200 50800 46200 1 0 0
{
T 50500 46200 5 10 0 0 0 0 1
pintype=in
T 50855 46195 5 10 1 1 0 0 1
pinlabel=XTAL2
T 50705 46245 5 10 1 1 0 6 1
pinnumber=7
T 50500 46200 5 10 0 0 0 0 1
pinseq=7
}
P 50500 46500 50800 46500 1 0 0
{
T 50500 46500 5 10 0 0 0 0 1
pintype=pwr
T 50855 46495 5 10 1 1 0 0 1
pinlabel=GND
T 50705 46545 5 10 1 1 0 6 1
pinnumber=6
T 50500 46500 5 10 0 0 0 0 1
pinseq=6
}
P 50500 46800 50800 46800 1 0 0
{
T 50500 46800 5 10 0 0 0 0 1
pintype=pwr
T 50855 46795 5 10 1 1 0 0 1
pinlabel=VCC
T 50705 46845 5 10 1 1 0 6 1
pinnumber=5
T 50500 46800 5 10 0 0 0 0 1
pinseq=5
}
P 50500 47100 50800 47100 1 0 0
{
T 50500 47100 5 10 0 0 0 0 1
pintype=in
T 50855 47095 5 10 1 1 0 0 1
pinlabel=\_RESET\_
T 50705 47145 5 10 1 1 0 6 1
pinnumber=4
T 50500 47100 5 10 0 0 0 0 1
pinseq=4
}
P 50500 47400 50800 47400 1 0 0
{
T 50500 47400 5 10 0 0 0 0 1
pintype=io
T 50855 47395 5 10 1 1 0 0 1
pinlabel=PB7 (PCINT15/OC3B/SCK)
T 50705 47445 5 10 1 1 0 6 1
pinnumber=3
T 50500 47400 5 10 0 0 0 0 1
pinseq=3
}
P 50500 47700 50800 47700 1 0 0
{
T 50500 47700 5 10 0 0 0 0 1
pintype=io
T 50855 47695 5 10 1 1 0 0 1
pinlabel=PB6 (PCINT14/OC3A/MISO)
T 50705 47745 5 10 1 1 0 6 1
pinnumber=2
T 50500 47700 5 10 0 0 0 0 1
pinseq=2
}
P 50500 48000 50800 48000 1 0 0
{
T 50500 48000 5 10 0 0 0 0 1
pintype=io
T 50855 47995 5 10 1 1 0 0 1
pinlabel=PB5 (PCINT13/ICP3/MOSI)
T 50705 48045 5 10 1 1 0 6 1
pinnumber=1
T 50500 48000 5 10 0 0 0 0 1
pinseq=1
}
B 50800 41400 5000 7000 3 0 0 0 -1 -1 0 -1 -1 -1 -1 -1
]
{
T 50900 48500 5 10 1 1 0 0 1
refdes=MCU
T 50900 49200 5 10 0 0 0 0 1
device=ATmega1284P
T 50900 41300 5 10 1 0 0 2 1
footprint=TQFP44_10
}
N 57900 43200 57900 42100 4
N 50500 46500 49600 46500 4
N 49600 46500 49600 46300 4
N 49300 46800 50500 46800 4
C 49500 42400 1 0 0 gnd-1.sym
C 49300 43000 1 90 0 vcc-1.sym
N 50500 42900 49600 42900 4
N 49600 42900 49600 42700 4
N 49300 43200 50500 43200 4
C 41800 51200 1 90 0 capacitor-1.sym
{
T 41100 51400 5 10 0 0 90 0 1
device=CAPACITOR
T 41700 51800 5 10 1 1 0 0 1
refdes=C4
T 40900 51400 5 10 0 0 90 0 1
symversion=0.1
T 41700 51400 5 10 1 1 0 0 1
value=0.1
T 41800 51200 5 10 0 0 0 0 1
footprint=0805
}
C 42400 51200 1 90 0 capacitor-1.sym
{
T 41700 51400 5 10 0 0 90 0 1
device=CAPACITOR
T 42300 51800 5 10 1 1 0 0 1
refdes=C5
T 41500 51400 5 10 0 0 90 0 1
symversion=0.1
T 42300 51400 5 10 1 1 0 0 1
value=0.1
T 42400 51200 5 10 0 0 0 0 1
footprint=0805
}
C 40500 42800 1 0 0 EMBEDDEDMAX9700AEUBplus.sym
[
B 40800 43100 2100 1700 3 0 0 0 -1 -1 0 -1 -1 -1 -1 -1
P 40500 44500 40800 44500 1 0 0
{
T 40500 44500 5 10 0 0 0 0 1
pintype=pwr
T 40855 44495 5 10 1 1 0 0 1
pinlabel=VDD
T 40705 44545 5 10 1 1 0 6 1
pinnumber=1
T 40500 44500 5 10 0 0 0 0 1
pinseq=1
}
P 40500 44200 40800 44200 1 0 0
{
T 40500 44200 5 10 0 0 0 0 1
pintype=in
T 40855 44195 5 10 1 1 0 0 1
pinlabel=IN+
T 40705 44245 5 10 1 1 0 6 1
pinnumber=2
T 40500 44200 5 10 0 0 0 0 1
pinseq=2
}
P 40500 43900 40800 43900 1 0 0
{
T 40500 43900 5 10 0 0 0 0 1
pintype=in
T 40855 43895 5 10 1 1 0 0 1
pinlabel=IN-
T 40705 43945 5 10 1 1 0 6 1
pinnumber=3
T 40500 43900 5 10 0 0 0 0 1
pinseq=3
}
P 40500 43600 40800 43600 1 0 0
{
T 40500 43600 5 10 0 0 0 0 1
pintype=pwr
T 40855 43595 5 10 1 1 0 0 1
pinlabel=GND
T 40705 43645 5 10 1 1 0 6 1
pinnumber=4
T 40500 43600 5 10 0 0 0 0 1
pinseq=4
}
P 40500 43300 40800 43300 1 0 0
{
T 40500 43300 5 10 0 0 0 0 1
pintype=in
T 40855 43295 5 10 1 1 0 0 1
pinlabel=\_SHDN\_
T 40705 43345 5 10 1 1 0 6 1
pinnumber=5
T 40500 43300 5 10 0 0 0 0 1
pinseq=5
}
P 43200 44500 42900 44500 1 0 0
{
T 43100 44500 5 10 0 0 0 0 1
pintype=pwr
T 42845 44495 5 10 1 1 0 6 1
pinlabel=PVDD
T 42995 44545 5 10 1 1 0 0 1
pinnumber=10
T 43100 44500 5 10 0 0 0 0 1
pinseq=10
}
P 43200 44200 42900 44200 1 0 0
{
T 43100 44200 5 10 0 0 0 0 1
pintype=out
T 42845 44195 5 10 1 1 0 6 1
pinlabel=OUT-
T 42995 44245 5 10 1 1 0 0 1
pinnumber=9
T 43100 44200 5 10 0 0 0 0 1
pinseq=9
}
P 43200 43900 42900 43900 1 0 0
{
T 43100 43900 5 10 0 0 0 0 1
pintype=out
T 42845 43895 5 10 1 1 0 6 1
pinlabel=OUT+
T 42995 43945 5 10 1 1 0 0 1
pinnumber=8
T 43100 43900 5 10 0 0 0 0 1
pinseq=8
}
P 43200 43600 42900 43600 1 0 0
{
T 43100 43600 5 10 0 0 0 0 1
pintype=pwr
T 42845 43595 5 10 1 1 0 6 1
pinlabel=PGND
T 42995 43645 5 10 1 1 0 0 1
pinnumber=7
T 43100 43600 5 10 0 0 0 0 1
pinseq=7
}
P 43200 43300 42900 43300 1 0 0
{
T 43100 43300 5 10 0 0 0 0 1
pintype=in
T 42845 43295 5 10 1 1 0 6 1
pinlabel=SYNC
T 42995 43345 5 10 1 1 0 0 1
pinnumber=6
T 43100 43300 5 10 0 0 0 0 1
pinseq=6
}
T 41500 44900 9 10 1 0 0 0 1
MAX9700AEUB+
T 40900 44900 8 10 0 1 0 0 1
refdes=U?
T 40900 43000 8 10 0 0 0 2 1
footprint=MSOP10
T 40900 45300 8 10 0 0 0 0 1
numslots=1
T 40900 45600 8 10 0 0 0 0 1
description=Class D 1.2 Watt audio amplifier
T 40900 45900 8 10 0 0 0 0 1
device=MAX9700AEUB+
T 40900 46200 8 10 0 0 0 0 1
author=Russell Steicke <russells@adelie.cx>
]
{
T 40900 44900 5 10 1 1 0 0 1
refdes=AMP
T 40900 43000 5 10 1 0 0 2 1
footprint=MSOP10A
T 40900 45900 5 10 0 0 0 0 1
device=MAX9700AEUB+
}
C 39900 42700 1 0 0 gnd-1.sym
C 40100 45000 1 0 0 vcc-1.sym
N 43200 44200 46100 44200 4
{
T 45500 44300 5 10 1 1 0 3 1
netname=SP1
}
N 43200 43900 46100 43900 4
{
T 45500 43800 5 10 1 1 0 5 1
netname=SP2
}
C 57000 49600 1 90 0 resistor-2.sym
{
T 56650 50000 5 10 0 0 90 0 1
device=RESISTOR
T 57100 50100 5 10 1 1 180 8 1
refdes=RDAC
T 57000 49600 5 10 0 0 0 0 1
footprint=0805
}
C 56700 50500 1 0 0 vcc-1.sym
N 56900 49600 56900 48800 4
{
T 57000 48800 5 10 1 1 0 0 1
netname=DACSYNC
}
C 43000 51200 1 90 0 capacitor-1.sym
{
T 42300 51400 5 10 0 0 90 0 1
device=CAPACITOR
T 42900 51800 5 10 1 1 0 0 1
refdes=C6
T 42100 51400 5 10 0 0 90 0 1
symversion=0.1
T 42900 51400 5 10 1 1 0 0 1
value=0.1
T 43000 51200 5 10 0 0 0 0 1
footprint=0805
}
N 40300 45000 40300 44500 4
N 40300 44500 40500 44500 4
N 40500 43600 40000 43600 4
N 40000 43600 40000 43000 4
N 40500 43300 40300 43300 4
N 40300 43300 40300 42300 4
N 40300 42300 41200 42300 4
{
T 41300 42300 5 10 1 1 0 1 1
netname=AMPSHDN
}
C 43300 45000 1 0 0 vcc-1.sym
N 43200 44500 43500 44500 4
N 43500 44500 43500 45000 4
C 38300 47600 1 90 0 resistor-2.sym
{
T 37950 48000 5 10 0 0 90 0 1
device=RESISTOR
T 38000 48200 5 10 1 1 180 2 1
refdes=RB1
T 38300 47600 5 10 0 0 0 0 1
footprint=0805
T 38000 48000 5 10 1 1 0 8 1
value=33k
}
C 40700 47600 1 90 0 resistor-2.sym
{
T 40350 48000 5 10 0 0 90 0 1
device=RESISTOR
T 40800 48200 5 10 1 1 180 8 1
refdes=RA1
T 40700 47600 5 10 0 0 0 0 1
footprint=0805
T 40800 48000 5 10 1 1 0 2 1
value=33k
}
C 38300 46500 1 90 0 resistor-2.sym
{
T 37950 46900 5 10 0 0 90 0 1
device=RESISTOR
T 38000 47100 5 10 1 1 180 2 1
refdes=RB2
T 38300 46500 5 10 0 0 0 0 1
footprint=0805
T 38000 46900 5 10 1 1 0 8 1
value=10k
}
C 40700 46500 1 90 0 resistor-2.sym
{
T 40350 46900 5 10 0 0 90 0 1
device=RESISTOR
T 40800 47100 5 10 1 1 180 8 1
refdes=RA2
T 40700 46500 5 10 0 0 0 0 1
footprint=0805
T 40800 46900 5 10 1 1 0 2 1
value=10k
}
C 39200 46300 1 90 0 capacitor-1.sym
{
T 38500 46500 5 10 0 0 90 0 1
device=CAPACITOR
T 38900 46900 5 10 1 1 180 2 1
refdes=CB
T 38300 46500 5 10 0 0 90 0 1
symversion=0.1
T 39200 46300 5 10 0 0 90 0 1
footprint=0805
T 38900 46600 5 10 1 1 180 0 1
value=1.0
}
C 39600 47200 1 270 0 capacitor-1.sym
{
T 40300 47000 5 10 0 0 270 0 1
device=CAPACITOR
T 39900 46900 5 10 1 1 0 0 1
refdes=CA
T 40500 47000 5 10 0 0 270 0 1
symversion=0.1
T 39600 47200 5 10 0 0 270 0 1
footprint=0805
T 39900 46600 5 10 1 1 0 2 1
value=1.0
}
N 38200 48500 38200 50000 4
{
T 38100 49200 5 10 1 1 0 6 1
netname=TPB1
}
N 38200 47600 38200 47400 4
N 40600 47600 40600 47400 4
N 39000 47500 38200 47500 4
N 38200 46500 38200 46200 4
N 40600 46500 40600 46200 4
N 40600 48800 43600 48800 4
N 40600 48800 40600 48500 4
{
T 40500 48800 5 10 1 1 0 6 1
netname=TPA1
}
C 38100 45900 1 0 0 gnd-1.sym
C 40500 45900 1 0 0 gnd-1.sym
N 46600 48800 46900 48800 4
N 46900 48800 46900 50000 4
N 46900 50000 38200 50000 4
N 39800 47500 40600 47500 4
N 39800 44200 40500 44200 4
N 39000 46300 39000 43900 4
{
T 39000 44800 5 10 1 1 0 6 1
netname=TPB2
}
N 39000 43900 40500 43900 4
T 43500 38800 9 10 1 0 0 5 1
Red LED
C 43600 51200 1 90 0 capacitor-1.sym
{
T 42900 51400 5 10 0 0 90 0 1
device=CAPACITOR
T 43500 51800 5 10 1 1 0 0 1
refdes=C7
T 42700 51400 5 10 0 0 90 0 1
symversion=0.1
T 43500 51400 5 10 1 1 0 0 1
value=0.1
T 43600 51200 5 10 0 0 0 0 1
footprint=0805
}
C 38400 38600 1 0 0 connector2-1a.sym
{
T 38600 39600 5 10 0 0 0 0 1
device=CONNECTOR_2
T 38400 39400 5 10 1 1 0 0 1
refdes=LID
T 38400 38600 5 10 0 0 0 0 1
footprint=HEADER2_1
}
C 46800 43700 1 0 1 connector2-1a.sym
{
T 46600 44700 5 10 0 0 0 6 1
device=CONNECTOR_2
T 46800 44500 5 10 1 1 0 6 1
refdes=SP
T 46800 43700 5 10 0 0 0 6 1
footprint=HEADER2_1
}
C 45100 51300 1 0 1 connector2-1a.sym
{
T 44900 52300 5 10 0 0 0 6 1
device=CONNECTOR_2
T 45100 52100 5 10 1 1 0 6 1
refdes=DC
T 45100 51300 5 10 0 0 0 6 1
footprint=HEADER2_1
}
N 39300 38800 39100 38800 4
C 45000 42900 1 90 0 connector2-1a.sym
{
T 44000 43100 5 10 0 0 90 0 1
device=CONNECTOR_2
T 44700 42800 5 10 1 1 180 3 1
refdes=SPOUT2
T 45000 42900 5 10 0 0 0 0 1
footprint=HEADER2_1
}
C 45000 45200 1 90 1 connector2-1a.sym
{
T 44000 45000 5 10 0 0 270 2 1
device=CONNECTOR_2
T 44700 45300 5 10 1 1 0 3 1
refdes=SPOUT1
T 45000 45200 5 10 0 0 0 0 1
footprint=HEADER2_1
}
N 44500 44500 44500 44200 4
N 44800 44500 44800 44200 4
N 44500 43600 44500 43900 4
N 44800 43600 44800 43900 4
T 44200 41600 9 10 1 0 0 0 4
SPOUT1 and SPOUT2 are for possible
inline speaker components - perhaps
capacitors, or inline resistors to reduce
drive.
C 43500 42700 1 0 0 gnd-1.sym
N 43200 43600 43600 43600 4
N 43600 43600 43600 43000 4
N 39000 47500 39000 47200 4
N 39800 47500 39800 47200 4
N 39800 46300 39800 44200 4
{
T 39800 45500 5 10 1 1 0 6 1
netname=TPA2
}
N 44400 51500 44100 51500 4
N 44100 51500 44100 51200 4
N 44400 51800 44100 51800 4
N 44100 51800 44100 52100 4
N 43600 47900 43000 47900 4
T 54300 38800 9 10 1 0 0 0 9
These MCU connections can
be moved to different IO pins:
- DACSYNC
- AMPSHDN
- PINA and PINB
- LEDOUT
- LIDSWITCH

Do not use pin 44 (\_SS\_). Leave it unconnected.
C 37500 46500 1 90 0 capacitor-1.sym
{
T 36800 46700 5 10 0 0 90 0 1
device=CAPACITOR
T 37200 47100 5 10 1 1 180 2 1
refdes=CB2
T 36600 46700 5 10 0 0 90 0 1
symversion=0.1
T 37500 46500 5 10 0 0 90 0 1
footprint=0805
T 37200 46800 5 10 1 1 180 0 1
value=470pF
}
N 38200 47500 37300 47500 4
N 37300 47500 37300 47400 4
N 37300 46500 37300 46300 4
N 37300 46300 38200 46300 4
C 41300 47400 1 270 0 capacitor-1.sym
{
T 42000 47200 5 10 0 0 270 0 1
device=CAPACITOR
T 41600 47100 5 10 1 1 0 0 1
refdes=CA2
T 42200 47200 5 10 0 0 270 0 1
symversion=0.1
T 41300 47400 5 10 0 0 270 0 1
footprint=0805
T 41600 46800 5 10 1 1 0 2 1
value=470pF
}
N 40600 47500 41500 47500 4
N 41500 47500 41500 47400 4
N 41500 46500 41500 46300 4
N 41500 46300 40600 46300 4
C 56400 46400 1 270 0 vcc-1.sym
C 58400 46000 1 0 0 gnd-1.sym
N 56100 46500 58500 46500 4
N 58500 46500 58500 46300 4
N 56100 46200 56400 46200 4
C 43600 47600 1 0 0 EMBEDDEDAD7303BRZ.sym
[
T 44000 50500 8 10 0 0 0 0 1
description=AD7303BRZ
T 44000 50200 8 10 0 0 0 0 1
author=Russell Steicke <russells@adelie.cx>
T 44000 49900 8 10 0 0 0 0 1
description=Dual channel ADC
T 44000 49600 8 10 0 0 0 0 1
numslots=1
T 46200 49300 8 10 0 1 0 6 1
refdes=U?
T 44000 49300 9 10 1 0 0 0 1
AD7303BRZ
P 46600 47900 46300 47900 1 0 0
{
T 46600 47900 5 10 0 0 0 0 1
pintype=in
T 46245 47895 5 10 1 1 0 6 1
pinlabel=SCLK
T 46395 47945 5 10 1 1 0 0 1
pinnumber=5
T 46600 47900 5 10 0 0 0 0 1
pinseq=5
}
P 46600 48200 46300 48200 1 0 0
{
T 46600 48200 5 10 0 0 0 0 1
pintype=in
T 46245 48195 5 10 1 1 0 6 1
pinlabel=DIN
T 46395 48245 5 10 1 1 0 0 1
pinnumber=6
T 46600 48200 5 10 0 0 0 0 1
pinseq=6
}
P 46600 48500 46300 48500 1 0 0
{
T 46600 48500 5 10 0 0 0 0 1
pintype=in
T 46245 48495 5 10 1 1 0 6 1
pinlabel=\_SYNC\_
T 46395 48545 5 10 1 1 0 0 1
pinnumber=7
T 46600 48500 5 10 0 0 0 0 1
pinseq=8
}
P 46600 48800 46300 48800 1 0 0
{
T 46600 48800 5 10 0 0 0 0 1
pintype=out
T 46245 48795 5 10 1 1 0 6 1
pinlabel=VOUTB
T 46395 48845 5 10 1 1 0 0 1
pinnumber=8
T 46600 48800 5 10 0 0 0 0 1
pinseq=8
}
P 43600 47900 43900 47900 1 0 0
{
T 43600 47900 5 10 0 0 0 0 1
pintype=in
T 43955 47895 5 10 1 1 0 0 1
pinlabel=REF
T 43805 47945 5 10 1 1 0 6 1
pinnumber=4
T 43600 47900 5 10 0 0 0 0 1
pinseq=4
}
P 43600 48200 43900 48200 1 0 0
{
T 43600 48200 5 10 0 0 0 0 1
pintype=pwr
T 43955 48195 5 10 1 1 0 0 1
pinlabel=GND
T 43805 48245 5 10 1 1 0 6 1
pinnumber=3
T 43600 48200 5 10 0 0 0 0 1
pinseq=3
}
P 43600 48500 43900 48500 1 0 0
{
T 43600 48500 5 10 0 0 0 0 1
pintype=pwr
T 43955 48495 5 10 1 1 0 0 1
pinlabel=VDD
T 43805 48545 5 10 1 1 0 6 1
pinnumber=2
T 43600 48500 5 10 0 0 0 0 1
pinseq=2
}
P 43600 48800 43900 48800 1 0 0
{
T 43600 48800 5 10 0 0 0 0 1
pintype=out
T 43955 48795 5 10 1 1 0 0 1
pinlabel=VOUTA
T 43805 48845 5 10 1 1 0 6 1
pinnumber=1
T 43600 48800 5 10 0 0 0 0 1
pinseq=1
}
B 43900 47600 2400 1600 3 0 0 0 -1 -1 0 -1 -1 -1 -1 -1
]
{
T 46200 49300 5 10 1 1 0 6 1
refdes=DAC
T 43900 47400 5 10 1 0 0 2 1
footprint=SOIC-127P-600L1-8N.fp
}
N 56100 42000 56400 42000 4
{
T 56500 42000 5 10 1 1 0 1 1
netname=AMPSHDN
}
N 56100 42300 56400 42300 4
{
T 56500 42300 5 10 1 1 0 1 1
netname=DACSYNC
}
N 40400 40000 40400 40300 4
{
T 40400 40400 5 10 1 1 0 3 1
netname=LIDV
}
N 50200 44400 50500 44400 4
{
T 50100 44400 5 10 1 1 0 7 1
netname=LIDV
}
