v 20110115 2
B 300 300 5000 7000 3 0 0 0 -1 -1 0 -1 -1 -1 -1 -1
P 0 6900 300 6900 1 0 0
{
T 0 6900 5 10 0 0 0 0 1
pintype=io
T 355 6895 5 10 1 1 0 0 1
pinlabel=PB5 (PCINT13/ICP3/MOSI)
T 205 6945 5 10 1 1 0 6 1
pinnumber=1
T 0 6900 5 10 0 0 0 0 1
pinseq=1
}
P 0 6600 300 6600 1 0 0
{
T 0 6600 5 10 0 0 0 0 1
pintype=io
T 355 6595 5 10 1 1 0 0 1
pinlabel=PB6 (PCINT14/OC3A/MISO)
T 205 6645 5 10 1 1 0 6 1
pinnumber=2
T 0 6600 5 10 0 0 0 0 1
pinseq=2
}
P 0 6300 300 6300 1 0 0
{
T 0 6300 5 10 0 0 0 0 1
pintype=io
T 355 6295 5 10 1 1 0 0 1
pinlabel=PB7 (PCINT15/OC3B/SCK)
T 205 6345 5 10 1 1 0 6 1
pinnumber=3
T 0 6300 5 10 0 0 0 0 1
pinseq=3
}
P 0 6000 300 6000 1 0 0
{
T 0 6000 5 10 0 0 0 0 1
pintype=in
T 355 5995 5 10 1 1 0 0 1
pinlabel=\_RESET\_
T 205 6045 5 10 1 1 0 6 1
pinnumber=4
T 0 6000 5 10 0 0 0 0 1
pinseq=4
}
P 0 5700 300 5700 1 0 0
{
T 0 5700 5 10 0 0 0 0 1
pintype=pwr
T 355 5695 5 10 1 1 0 0 1
pinlabel=VCC
T 205 5745 5 10 1 1 0 6 1
pinnumber=5
T 0 5700 5 10 0 0 0 0 1
pinseq=5
}
P 0 5400 300 5400 1 0 0
{
T 0 5400 5 10 0 0 0 0 1
pintype=pwr
T 355 5395 5 10 1 1 0 0 1
pinlabel=GND
T 205 5445 5 10 1 1 0 6 1
pinnumber=6
T 0 5400 5 10 0 0 0 0 1
pinseq=6
}
P 0 5100 300 5100 1 0 0
{
T 0 5100 5 10 0 0 0 0 1
pintype=in
T 355 5095 5 10 1 1 0 0 1
pinlabel=XTAL2
T 205 5145 5 10 1 1 0 6 1
pinnumber=7
T 0 5100 5 10 0 0 0 0 1
pinseq=7
}
P 0 4800 300 4800 1 0 0
{
T 0 4800 5 10 0 0 0 0 1
pintype=in
T 355 4795 5 10 1 1 0 0 1
pinlabel=XTAL1
T 205 4845 5 10 1 1 0 6 1
pinnumber=8
T 0 4800 5 10 0 0 0 0 1
pinseq=8
}
P 0 4500 300 4500 1 0 0
{
T 0 4500 5 10 0 0 0 0 1
pintype=io
T 355 4495 5 10 1 1 0 0 1
pinlabel=PD0 (PCINT24/RXD0/T3*)
T 205 4545 5 10 1 1 0 6 1
pinnumber=9
T 0 4500 5 10 0 0 0 0 1
pinseq=9
}
P 0 4200 300 4200 1 0 0
{
T 0 4200 5 10 0 0 0 0 1
pintype=io
T 355 4195 5 10 1 1 0 0 1
pinlabel=PD1 (PCINT25/TXD0)
T 205 4245 5 10 1 1 0 6 1
pinnumber=10
T 0 4200 5 10 0 0 0 0 1
pinseq=10
}
P 0 3900 300 3900 1 0 0
{
T 0 3900 5 10 0 0 0 0 1
pintype=io
T 355 3895 5 10 1 1 0 0 1
pinlabel=PD2 (PCINT26/RXD1/INT0)
T 205 3945 5 10 1 1 0 6 1
pinnumber=11
T 0 3900 5 10 0 0 0 0 1
pinseq=11
}
P 0 3600 300 3600 1 0 0
{
T 0 3600 5 10 0 0 0 0 1
pintype=io
T 355 3595 5 10 1 1 0 0 1
pinlabel=PD3 (PCINT27/TXD1/INT1)
T 205 3645 5 10 1 1 0 6 1
pinnumber=12
T 0 3600 5 10 0 0 0 0 1
pinseq=12
}
P 0 3300 300 3300 1 0 0
{
T 0 3300 5 10 0 0 0 0 1
pintype=io
T 355 3295 5 10 1 1 0 0 1
pinlabel=PD4 (PCINT28/XCK1/OC1B)
T 205 3345 5 10 1 1 0 6 1
pinnumber=13
T 0 3300 5 10 0 0 0 0 1
pinseq=13
}
P 0 3000 300 3000 1 0 0
{
T 0 3000 5 10 0 0 0 0 1
pintype=io
T 355 2995 5 10 1 1 0 0 1
pinlabel=PD5 (PCINT29/OC1A)
T 205 3045 5 10 1 1 0 6 1
pinnumber=14
T 0 3000 5 10 0 0 0 0 1
pinseq=14
}
P 0 2700 300 2700 1 0 0
{
T 0 2700 5 10 0 0 0 0 1
pintype=io
T 355 2695 5 10 1 1 0 0 1
pinlabel=PD6 (PCINT30/OC2B/ICP)
T 205 2745 5 10 1 1 0 6 1
pinnumber=15
T 0 2700 5 10 0 0 0 0 1
pinseq=15
}
P 0 2400 300 2400 1 0 0
{
T 0 2400 5 10 0 0 0 0 1
pintype=io
T 355 2395 5 10 1 1 0 0 1
pinlabel=PD7 (PCINT31/OC2A)
T 205 2445 5 10 1 1 0 6 1
pinnumber=16
T 0 2400 5 10 0 0 0 0 1
pinseq=16
}
P 0 2100 300 2100 1 0 0
{
T 0 2100 5 10 0 0 0 0 1
pintype=pwr
T 355 2095 5 10 1 1 0 0 1
pinlabel=VCC
T 205 2145 5 10 1 1 0 6 1
pinnumber=17
T 0 2100 5 10 0 0 0 0 1
pinseq=17
}
P 0 1800 300 1800 1 0 0
{
T 0 1800 5 10 0 0 0 0 1
pintype=pwr
T 355 1795 5 10 1 1 0 0 1
pinlabel=GND
T 205 1845 5 10 1 1 0 6 1
pinnumber=18
T 0 1800 5 10 0 0 0 0 1
pinseq=18
}
P 0 1500 300 1500 1 0 0
{
T 0 1500 5 10 0 0 0 0 1
pintype=io
T 355 1495 5 10 1 1 0 0 1
pinlabel=PC0 (PCINT16/SCL)
T 205 1545 5 10 1 1 0 6 1
pinnumber=19
T 0 1500 5 10 0 0 0 0 1
pinseq=19
}
P 0 1200 300 1200 1 0 0
{
T 0 1200 5 10 0 0 0 0 1
pintype=io
T 355 1195 5 10 1 1 0 0 1
pinlabel=PC1 (PCINT17/SDA)
T 205 1245 5 10 1 1 0 6 1
pinnumber=20
T 0 1200 5 10 0 0 0 0 1
pinseq=20
}
P 0 900 300 900 1 0 0
{
T 0 900 5 10 0 0 0 0 1
pintype=io
T 355 895 5 10 1 1 0 0 1
pinlabel=PC2 (PCINT18/TCK)
T 205 945 5 10 1 1 0 6 1
pinnumber=21
T 0 900 5 10 0 0 0 0 1
pinseq=21
}
P 0 600 300 600 1 0 0
{
T 0 600 5 10 0 0 0 0 1
pintype=io
T 355 595 5 10 1 1 0 0 1
pinlabel=PC3(PCINT19/TMS)
T 205 645 5 10 1 1 0 6 1
pinnumber=22
T 0 600 5 10 0 0 0 0 1
pinseq=22
}
P 5600 600 5300 600 1 0 0
{
T 5600 600 5 10 0 0 0 0 1
pintype=io
T 5245 595 5 10 1 1 0 6 1
pinlabel=(TDO/PCINT20) PC4
T 5395 645 5 10 1 1 0 0 1
pinnumber=23
T 5600 600 5 10 0 0 0 0 1
pinseq=23
}
P 5600 900 5300 900 1 0 0
{
T 5600 900 5 10 0 0 0 0 1
pintype=io
T 5245 895 5 10 1 1 0 6 1
pinlabel=(TDI/PCINT21) PC5
T 5395 945 5 10 1 1 0 0 1
pinnumber=24
T 5600 900 5 10 0 0 0 0 1
pinseq=24
}
P 5600 1200 5300 1200 1 0 0
{
T 5600 1200 5 10 0 0 0 0 1
pintype=io
T 5245 1195 5 10 1 1 0 6 1
pinlabel=(TOSC1/PCINT22) PC6
T 5395 1245 5 10 1 1 0 0 1
pinnumber=25
T 5600 1200 5 10 0 0 0 0 1
pinseq=25
}
P 5600 1500 5300 1500 1 0 0
{
T 5600 1500 5 10 0 0 0 0 1
pintype=io
T 5245 1495 5 10 1 1 0 6 1
pinlabel=(TOSC2/PCINT23) PC7
T 5395 1545 5 10 1 1 0 0 1
pinnumber=26
T 5600 1500 5 10 0 0 0 0 1
pinseq=26
}
P 5600 1800 5300 1800 1 0 0
{
T 5600 1800 5 10 0 0 0 0 1
pintype=pwr
T 5245 1795 5 10 1 1 0 6 1
pinlabel=AVCC
T 5395 1845 5 10 1 1 0 0 1
pinnumber=27
T 5600 1800 5 10 0 0 0 0 1
pinseq=27
}
P 5600 2100 5300 2100 1 0 0
{
T 5600 2100 5 10 0 0 0 0 1
pintype=pwr
T 5245 2095 5 10 1 1 0 6 1
pinlabel=GND
T 5395 2145 5 10 1 1 0 0 1
pinnumber=28
T 5600 2100 5 10 0 0 0 0 1
pinseq=28
}
P 5600 2400 5300 2400 1 0 0
{
T 5600 2400 5 10 0 0 0 0 1
pintype=io
T 5245 2395 5 10 1 1 0 6 1
pinlabel=AREF
T 5395 2445 5 10 1 1 0 0 1
pinnumber=29
T 5600 2400 5 10 0 0 0 0 1
pinseq=29
}
P 5600 2700 5300 2700 1 0 0
{
T 5600 2700 5 10 0 0 0 0 1
pintype=io
T 5245 2695 5 10 1 1 0 6 1
pinlabel=(ADC7/PCINT7) PA7
T 5395 2745 5 10 1 1 0 0 1
pinnumber=30
T 5600 2700 5 10 0 0 0 0 1
pinseq=30
}
P 5600 3000 5300 3000 1 0 0
{
T 5600 3000 5 10 0 0 0 0 1
pintype=io
T 5245 2995 5 10 1 1 0 6 1
pinlabel=(ADC6/PCINT6) PA6
T 5395 3045 5 10 1 1 0 0 1
pinnumber=31
T 5600 3000 5 10 0 0 0 0 1
pinseq=31
}
P 5600 3300 5300 3300 1 0 0
{
T 5600 3300 5 10 0 0 0 0 1
pintype=io
T 5245 3295 5 10 1 1 0 6 1
pinlabel=(ADC5/PCINT5) PA5
T 5395 3345 5 10 1 1 0 0 1
pinnumber=32
T 5600 3300 5 10 0 0 0 0 1
pinseq=32
}
P 5600 3600 5300 3600 1 0 0
{
T 5600 3600 5 10 0 0 0 0 1
pintype=io
T 5245 3595 5 10 1 1 0 6 1
pinlabel=(ADC4/PCINT4) PA4
T 5395 3645 5 10 1 1 0 0 1
pinnumber=33
T 5600 3600 5 10 0 0 0 0 1
pinseq=33
}
P 5600 3900 5300 3900 1 0 0
{
T 5600 3900 5 10 0 0 0 0 1
pintype=io
T 5245 3895 5 10 1 1 0 6 1
pinlabel=(ADC3/PCINT3) PA3
T 5395 3945 5 10 1 1 0 0 1
pinnumber=34
T 5600 3900 5 10 0 0 0 0 1
pinseq=34
}
P 5600 4200 5300 4200 1 0 0
{
T 5600 4200 5 10 0 0 0 0 1
pintype=io
T 5245 4195 5 10 1 1 0 6 1
pinlabel=(ADC2/PCINT2) PA2
T 5395 4245 5 10 1 1 0 0 1
pinnumber=35
T 5600 4200 5 10 0 0 0 0 1
pinseq=35
}
P 5600 4500 5300 4500 1 0 0
{
T 5600 4500 5 10 0 0 0 0 1
pintype=io
T 5245 4495 5 10 1 1 0 6 1
pinlabel=(ADC1/PCINT1) PA1
T 5395 4545 5 10 1 1 0 0 1
pinnumber=36
T 5600 4500 5 10 0 0 0 0 1
pinseq=36
}
P 5600 4800 5300 4800 1 0 0
{
T 5600 4800 5 10 0 0 0 0 1
pintype=io
T 5245 4795 5 10 1 1 0 6 1
pinlabel=(ADC0/PCINT0) PA0
T 5395 4845 5 10 1 1 0 0 1
pinnumber=37
T 5600 4800 5 10 0 0 0 0 1
pinseq=37
}
P 5600 5100 5300 5100 1 0 0
{
T 5600 5100 5 10 0 0 0 0 1
pintype=io
T 5245 5095 5 10 1 1 0 6 1
pinlabel=VCC
T 5395 5145 5 10 1 1 0 0 1
pinnumber=38
T 5600 5100 5 10 0 0 0 0 1
pinseq=38
}
P 5600 5400 5300 5400 1 0 0
{
T 5600 5400 5 10 0 0 0 0 1
pintype=io
T 5245 5395 5 10 1 1 0 6 1
pinlabel=GND
T 5395 5445 5 10 1 1 0 0 1
pinnumber=39
T 5600 5400 5 10 0 0 0 0 1
pinseq=39
}
P 5600 5700 5300 5700 1 0 0
{
T 5600 5700 5 10 0 0 0 0 1
pintype=io
T 5245 5695 5 10 1 1 0 6 1
pinlabel=(XCK0/T0/PCINT8) PB0
T 5395 5745 5 10 1 1 0 0 1
pinnumber=40
T 5600 5700 5 10 0 0 0 0 1
pinseq=40
}
P 5600 6000 5300 6000 1 0 0
{
T 5600 6000 5 10 0 0 0 0 1
pintype=io
T 5245 5995 5 10 1 1 0 6 1
pinlabel=(T1/CLKO/PCINT9) PB1
T 5395 6045 5 10 1 1 0 0 1
pinnumber=41
T 5600 6000 5 10 0 0 0 0 1
pinseq=41
}
P 5600 6300 5300 6300 1 0 0
{
T 5600 6300 5 10 0 0 0 0 1
pintype=io
T 5245 6295 5 10 1 1 0 6 1
pinlabel=(AIN0/INT2/PCINT10) PB2
T 5395 6345 5 10 1 1 0 0 1
pinnumber=42
T 5600 6300 5 10 0 0 0 0 1
pinseq=42
}
P 5600 6600 5300 6600 1 0 0
{
T 5600 6600 5 10 0 0 0 0 1
pintype=io
T 5245 6595 5 10 1 1 0 6 1
pinlabel=(AIN1/OC0A/PCINT11) PB3
T 5395 6645 5 10 1 1 0 0 1
pinnumber=43
T 5600 6600 5 10 0 0 0 0 1
pinseq=43
}
P 5600 6900 5300 6900 1 0 0
{
T 5600 6900 5 10 0 0 0 0 1
pintype=io
T 5245 6895 5 10 1 1 0 6 1
pinlabel=(\_SS\_/OC0B/PCINT12) PB4
T 5395 6945 5 10 1 1 0 0 1
pinnumber=44
T 5600 6900 5 10 0 0 0 0 1
pinseq=44
}
T 2000 7400 9 10 1 0 0 0 1
ATmega1284P
T 400 7400 8 10 1 1 0 0 1
refdes=U?
T 400 8700 8 10 0 0 0 0 1
author=Russell Steicke <russells@adelie.cx>
T 400 8400 8 10 0 0 0 0 1
description=AVR ATmega1284P with TQFP 44 footprint
T 400 8100 8 10 0 0 0 0 1
device=ATmega1284P
T 400 7800 8 10 0 0 0 0 1
numslots=1
T 400 200 8 10 1 0 0 2 1
footprint=TQFP44_10
